{
    "items": [
      {
        "Id": 2290,
        "Num": 1,
        "Remove": null,
        "Cuenta": "Otras ventas",
        "CuentaId": 5778,
        "Tipo": null,
        "Glosa": "CENTRALIZACION DE VENTAS",
        "CentroCostos": null,
        "CentroCostosId": 0,
        "Sucursal": null,
        "SucursalId": 0,
        "Debe": 0,
        "Haber": 1500000,
        "Accion": "update",
        "Movimientos": {
          "aux": [],
          "ban": null
        }
      },
      {
        "Id": 2291,
        "Num": 2,
        "Remove": null,
        "Cuenta": "Clientes",
        "CuentaId": 4621,
        "Tipo": null,
        "Glosa": "CENTRALIZACION DE VENTAS",
        "CentroCostos": null,
        "CentroCostosId": 0,
        "Sucursal": null,
        "SucursalId": 0,
        "Debe": 1650000,
        "Haber": 0,
        "Accion": "update",
        "Movimientos": {
          "aux": [],
          "ban": null
        }
      },
      {
        "Id": 2292,
        "Num": 3,
        "Remove": null,
        "Cuenta": "Moneda extranjera",
        "CuentaId": 4507,
        "Tipo": "aux",
        "Glosa": "IVA",
        "CentroCostos": null,
        "CentroCostosId": 0,
        "Sucursal": null,
        "SucursalId": 0,
        "Debe": 0,
        "Haber": 10000,
        "Accion": "update",
        "Movimientos": {
          "aux": [],
          "ban": null
        }
      },
      {
        "Id": 2293,
        "Num": 4,
        "Remove": null,
        "Cuenta": "Moneda extranjera",
        "CuentaId": 4507,
        "Tipo": "aux",
        "Glosa": "IVA",
        "CentroCostos": null,
        "CentroCostosId": 0,
        "Sucursal": null,
        "SucursalId": 0,
        "Debe": 0,
        "Haber": 20000,
        "Accion": "update",
        "Movimientos": {
          "aux": [],
          "ban": null
        }
      },
      {
        "Id": 2294,
        "Num": 5,
        "Remove": null,
        "Cuenta": "Moneda extranjera",
        "CuentaId": 4507,
        "Tipo": "aux",
        "Glosa": "IVA",
        "CentroCostos": null,
        "CentroCostosId": 0,
        "Sucursal": null,
        "SucursalId": 0,
        "Debe": 0,
        "Haber": 30000,
        "Accion": "update",
        "Movimientos": {
          "aux": [],
          "ban": null
        }
      },
      {
        "Id": 2295,
        "Num": 6,
        "Remove": null,
        "Cuenta": "Moneda extranjera",
        "CuentaId": 4507,
        "Tipo": "aux",
        "Glosa": "IVA",
        "CentroCostos": null,
        "CentroCostosId": 0,
        "Sucursal": null,
        "SucursalId": 0,
        "Debe": 0,
        "Haber": 40000,
        "Accion": "update",
        "Movimientos": {
          "aux": [],
          "ban": null
        }
      },
      {
        "Id": 2296,
        "Num": 7,
        "Remove": null,
        "Cuenta": "Moneda extranjera",
        "CuentaId": 4507,
        "Tipo": "aux",
        "Glosa": "IVA",
        "CentroCostos": null,
        "CentroCostosId": 0,
        "Sucursal": null,
        "SucursalId": 0,
        "Debe": 0,
        "Haber": 50000,
        "Accion": "update",
        "Movimientos": {
          "aux": [],
          "ban": null
        }
      }
    ],
    "CodigoError": "E_00",
    "MensajeHumano": "Ejecutado correctamente",
    "MensajeError": null,
    "debugMode": false
  }